%YAML 1.1
%TAG !u! tag:unity3d.com,2011:
--- !u!74 &7400000
AnimationClip:
  m_ObjectHideFlags: 0
  m_CorrespondingSourceObject: {fileID: 0}
  m_PrefabInstance: {fileID: 0}
  m_PrefabAsset: {fileID: 0}
  m_Name: Plant_Win
  serializedVersion: 6
  m_Legacy: 0
  m_Compressed: 0
  m_UseHighQualityCurve: 1
  m_RotationCurves: []
  m_CompressedRotationCurves: []
  m_EulerCurves: []
  m_PositionCurves: []
  m_ScaleCurves: []
  m_FloatCurves: []
  m_PPtrCurves:
  - curve:
    - time: 0
      value: {fileID: -7468958395742820055, guid: c237349525801c643a02572e14d5e2a5, type: 3}
    - time: 0.083333336
      value: {fileID: 1623616204346156298, guid: c237349525801c643a02572e14d5e2a5, type: 3}
    - time: 0.16666667
      value: {fileID: 4590989780969547369, guid: c237349525801c643a02572e14d5e2a5, type: 3}
    - time: 0.25
      value: {fileID: -7112030806922280533, guid: c237349525801c643a02572e14d5e2a5, type: 3}
    - time: 0.33333334
      value: {fileID: -1521586743499604378, guid: c237349525801c643a02572e14d5e2a5, type: 3}
    - time: 0.41666666
      value: {fileID: -1357194219680941499, guid: c237349525801c643a02572e14d5e2a5, type: 3}
    - time: 0.5
      value: {fileID: 7282965820612228386, guid: c237349525801c643a02572e14d5e2a5, type: 3}
    - time: 0.5833333
      value: {fileID: -3966925621021983285, guid: c237349525801c643a02572e14d5e2a5, type: 3}
    - time: 0.6666667
      value: {fileID: -9018269415647848009, guid: c237349525801c643a02572e14d5e2a5, type: 3}
    - time: 0.75
      value: {fileID: 5902984072030965816, guid: c237349525801c643a02572e14d5e2a5, type: 3}
    - time: 0.8333333
      value: {fileID: 5785652801769577637, guid: c237349525801c643a02572e14d5e2a5, type: 3}
    - time: 0.9166667
      value: {fileID: -3295343243288779631, guid: c237349525801c643a02572e14d5e2a5, type: 3}
    - time: 1
      value: {fileID: 7023532958512142408, guid: c237349525801c643a02572e14d5e2a5, type: 3}
    - time: 1.0833334
      value: {fileID: -8722829428774186872, guid: c237349525801c643a02572e14d5e2a5, type: 3}
    - time: 1.1666666
      value: {fileID: 3387247930252714541, guid: c237349525801c643a02572e14d5e2a5, type: 3}
    - time: 1.25
      value: {fileID: 8382876120514024828, guid: c237349525801c643a02572e14d5e2a5, type: 3}
    - time: 1.3333334
      value: {fileID: 7464233772407509090, guid: c237349525801c643a02572e14d5e2a5, type: 3}
    - time: 1.4166666
      value: {fileID: 2779801286555198776, guid: c237349525801c643a02572e14d5e2a5, type: 3}
    - time: 1.5
      value: {fileID: -6337717186917738260, guid: c237349525801c643a02572e14d5e2a5, type: 3}
    - time: 1.5833334
      value: {fileID: 7358173612124196338, guid: c237349525801c643a02572e14d5e2a5, type: 3}
    - time: 1.6666666
      value: {fileID: 2768941812555209600, guid: c237349525801c643a02572e14d5e2a5, type: 3}
    - time: 1.75
      value: {fileID: -9081785188952858308, guid: c237349525801c643a02572e14d5e2a5, type: 3}
    - time: 1.8333334
      value: {fileID: 3958451082592679359, guid: c237349525801c643a02572e14d5e2a5, type: 3}
    - time: 1.9166666
      value: {fileID: -6674816308057610130, guid: c237349525801c643a02572e14d5e2a5, type: 3}
    - time: 2
      value: {fileID: -1535262881891921419, guid: c237349525801c643a02572e14d5e2a5, type: 3}
    - time: 2.0833333
      value: {fileID: -3736387338614976664, guid: c237349525801c643a02572e14d5e2a5, type: 3}
    - time: 2.1666667
      value: {fileID: -8467001073958655824, guid: c237349525801c643a02572e14d5e2a5, type: 3}
    attribute: m_Sprite
    path: 
    classID: 212
    script: {fileID: 0}
  m_SampleRate: 12
  m_WrapMode: 0
  m_Bounds:
    m_Center: {x: 0, y: 0, z: 0}
    m_Extent: {x: 0, y: 0, z: 0}
  m_ClipBindingConstant:
    genericBindings:
    - serializedVersion: 2
      path: 0
      attribute: 0
      script: {fileID: 0}
      typeID: 212
      customType: 23
      isPPtrCurve: 1
    pptrCurveMapping:
    - {fileID: -7468958395742820055, guid: c237349525801c643a02572e14d5e2a5, type: 3}
    - {fileID: 1623616204346156298, guid: c237349525801c643a02572e14d5e2a5, type: 3}
    - {fileID: 4590989780969547369, guid: c237349525801c643a02572e14d5e2a5, type: 3}
    - {fileID: -7112030806922280533, guid: c237349525801c643a02572e14d5e2a5, type: 3}
    - {fileID: -1521586743499604378, guid: c237349525801c643a02572e14d5e2a5, type: 3}
    - {fileID: -1357194219680941499, guid: c237349525801c643a02572e14d5e2a5, type: 3}
    - {fileID: 7282965820612228386, guid: c237349525801c643a02572e14d5e2a5, type: 3}
    - {fileID: -3966925621021983285, guid: c237349525801c643a02572e14d5e2a5, type: 3}
    - {fileID: -9018269415647848009, guid: c237349525801c643a02572e14d5e2a5, type: 3}
    - {fileID: 5902984072030965816, guid: c237349525801c643a02572e14d5e2a5, type: 3}
    - {fileID: 5785652801769577637, guid: c237349525801c643a02572e14d5e2a5, type: 3}
    - {fileID: -3295343243288779631, guid: c237349525801c643a02572e14d5e2a5, type: 3}
    - {fileID: 7023532958512142408, guid: c237349525801c643a02572e14d5e2a5, type: 3}
    - {fileID: -8722829428774186872, guid: c237349525801c643a02572e14d5e2a5, type: 3}
    - {fileID: 3387247930252714541, guid: c237349525801c643a02572e14d5e2a5, type: 3}
    - {fileID: 8382876120514024828, guid: c237349525801c643a02572e14d5e2a5, type: 3}
    - {fileID: 7464233772407509090, guid: c237349525801c643a02572e14d5e2a5, type: 3}
    - {fileID: 2779801286555198776, guid: c237349525801c643a02572e14d5e2a5, type: 3}
    - {fileID: -6337717186917738260, guid: c237349525801c643a02572e14d5e2a5, type: 3}
    - {fileID: 7358173612124196338, guid: c237349525801c643a02572e14d5e2a5, type: 3}
    - {fileID: 2768941812555209600, guid: c237349525801c643a02572e14d5e2a5, type: 3}
    - {fileID: -9081785188952858308, guid: c237349525801c643a02572e14d5e2a5, type: 3}
    - {fileID: 3958451082592679359, guid: c237349525801c643a02572e14d5e2a5, type: 3}
    - {fileID: -6674816308057610130, guid: c237349525801c643a02572e14d5e2a5, type: 3}
    - {fileID: -1535262881891921419, guid: c237349525801c643a02572e14d5e2a5, type: 3}
    - {fileID: -3736387338614976664, guid: c237349525801c643a02572e14d5e2a5, type: 3}
    - {fileID: -8467001073958655824, guid: c237349525801c643a02572e14d5e2a5, type: 3}
  m_AnimationClipSettings:
    serializedVersion: 2
    m_AdditiveReferencePoseClip: {fileID: 0}
    m_AdditiveReferencePoseTime: 0
    m_StartTime: 0
    m_StopTime: 2.25
    m_OrientationOffsetY: 0
    m_Level: 0
    m_CycleOffset: 0
    m_HasAdditiveReferencePose: 0
    m_LoopTime: 0
    m_LoopBlend: 0
    m_LoopBlendOrientation: 0
    m_LoopBlendPositionY: 0
    m_LoopBlendPositionXZ: 0
    m_KeepOriginalOrientation: 0
    m_KeepOriginalPositionY: 1
    m_KeepOriginalPositionXZ: 0
    m_HeightFromFeet: 0
    m_Mirror: 0
  m_EditorCurves: []
  m_EulerEditorCurves: []
  m_HasGenericRootTransform: 0
  m_HasMotionFloatCurves: 0
  m_Events: []
