Palabras Lindas,Palabras Feas
Genial,Horrible
Cool,Awful
Excelente,Espantoso
Genial,Dreadful
Asombroso,Apesta
Maravilloso,stink
Maravilla,suck
Tremendo,stinks
Grande,sucks
Hermoso,asqueroso
Tremebundo,disgusting
Amor,terrible
Paz,bad
Lindo,incompetent
Linda,incompetente
Hermosa,incapaz
quiero,odio
amo,hate
hilarante,detesto
excellent,detestable
great,manco
amazing,noob
wonderful,pete
astounding,terribad
peace,ass
cute,smell
kawaii,smells
pretty,ugly
aprecio,feo
appreciate,basura
corazon,trash
heart,shitty
histrionico,dislike
histrionic ,idiot
encanta,idiota
love,asshole
adore,ass
beautiful,tarado
incredible,nabo
increible,desagradable
adorable,meh
unbelievable,maso
diosa,mediocre
dioso,nope
precioso,incomprensible
preciosa,incompleto
precious,regular
good,raro
idola,entreverado
idolo,bleak
genio,disappointing
capo,bland
ame,insipid
despegado,insipido
brutal,stupid
bueno,poor
way to go,piss-poor
aced,deplorable
fabulous,despicable
fabuloso,nothing special
fantastico,aterrador
fantastica,caca
fantabuloso,shit 
terrific,poo
outstanding,poop
splendid,
esplendido,
optimo,
bello,
bella,
belleza,