%YAML 1.1
%TAG !u! tag:unity3d.com,2011:
--- !u!114 &2740430656763377285
MonoBehaviour:
  m_ObjectHideFlags: 0
  m_CorrespondingSourceObject: {fileID: 0}
  m_PrefabInstance: {fileID: 0}
  m_PrefabAsset: {fileID: 0}
  m_GameObject: {fileID: 7321952245774699070}
  m_Enabled: 1
  m_EditorHideFlags: 0
  m_Script: {fileID: 11500000, guid: 2a485b84059524a4585549eb6bba4733, type: 3}
  m_Name: 
  m_EditorClassIdentifier: 
  Particles: {fileID: 1854953487438392, guid: a07e7b59818a578448d55a9cca88c5af, type: 3}
  Clip: {fileID: 8300000, guid: 9b7cdc6b1cfebdd47b8bb83bece42ca2, type: 3}
--- !u!1001 &5180413860987886726
PrefabInstance:
  m_ObjectHideFlags: 0
  serializedVersion: 2
  m_Modification:
    m_TransformParent: {fileID: 3367018373330579291}
    m_Modifications:
    - target: {fileID: 1224551801570322340, guid: 37253679d5502564982c88d049cc97e5, type: 3}
      propertyPath: m_Name
      value: GarbageBagSmallAnim
      objectReference: {fileID: 0}
    - target: {fileID: 2475410097376961015, guid: 37253679d5502564982c88d049cc97e5, type: 3}
      propertyPath: m_RootOrder
      value: 0
      objectReference: {fileID: 0}
    - target: {fileID: 2475410097376961015, guid: 37253679d5502564982c88d049cc97e5, type: 3}
      propertyPath: m_LocalPosition.x
      value: 0
      objectReference: {fileID: 0}
    - target: {fileID: 2475410097376961015, guid: 37253679d5502564982c88d049cc97e5, type: 3}
      propertyPath: m_LocalPosition.y
      value: 0.5
      objectReference: {fileID: 0}
    - target: {fileID: 2475410097376961015, guid: 37253679d5502564982c88d049cc97e5, type: 3}
      propertyPath: m_LocalPosition.z
      value: 0
      objectReference: {fileID: 0}
    - target: {fileID: 2475410097376961015, guid: 37253679d5502564982c88d049cc97e5, type: 3}
      propertyPath: m_LocalRotation.w
      value: 1
      objectReference: {fileID: 0}
    - target: {fileID: 2475410097376961015, guid: 37253679d5502564982c88d049cc97e5, type: 3}
      propertyPath: m_LocalRotation.x
      value: -0
      objectReference: {fileID: 0}
    - target: {fileID: 2475410097376961015, guid: 37253679d5502564982c88d049cc97e5, type: 3}
      propertyPath: m_LocalRotation.y
      value: -0
      objectReference: {fileID: 0}
    - target: {fileID: 2475410097376961015, guid: 37253679d5502564982c88d049cc97e5, type: 3}
      propertyPath: m_LocalRotation.z
      value: -0
      objectReference: {fileID: 0}
    - target: {fileID: 2475410097376961015, guid: 37253679d5502564982c88d049cc97e5, type: 3}
      propertyPath: m_LocalEulerAnglesHint.x
      value: 0
      objectReference: {fileID: 0}
    - target: {fileID: 2475410097376961015, guid: 37253679d5502564982c88d049cc97e5, type: 3}
      propertyPath: m_LocalEulerAnglesHint.y
      value: 0
      objectReference: {fileID: 0}
    - target: {fileID: 2475410097376961015, guid: 37253679d5502564982c88d049cc97e5, type: 3}
      propertyPath: m_LocalEulerAnglesHint.z
      value: 0
      objectReference: {fileID: 0}
    m_RemovedComponents: []
  m_SourcePrefab: {fileID: 100100000, guid: 37253679d5502564982c88d049cc97e5, type: 3}
--- !u!1001 &7852362465334835537
PrefabInstance:
  m_ObjectHideFlags: 0
  serializedVersion: 2
  m_Modification:
    m_TransformParent: {fileID: 0}
    m_Modifications:
    - target: {fileID: 677227459005051759, guid: 06cc381c7d0d4514b9cc5ecddf93786c, type: 3}
      propertyPath: m_Name
      value: GarbageBagSmall
      objectReference: {fileID: 0}
    - target: {fileID: 3009726830052934983, guid: 06cc381c7d0d4514b9cc5ecddf93786c, type: 3}
      propertyPath: m_Size.y
      value: 0.5
      objectReference: {fileID: 0}
    - target: {fileID: 3009726830052934983, guid: 06cc381c7d0d4514b9cc5ecddf93786c, type: 3}
      propertyPath: m_Offset.y
      value: 0.25
      objectReference: {fileID: 0}
    - target: {fileID: 4774729643031893514, guid: 06cc381c7d0d4514b9cc5ecddf93786c, type: 3}
      propertyPath: m_RootOrder
      value: 0
      objectReference: {fileID: 0}
    - target: {fileID: 4774729643031893514, guid: 06cc381c7d0d4514b9cc5ecddf93786c, type: 3}
      propertyPath: m_LocalPosition.x
      value: -2.52
      objectReference: {fileID: 0}
    - target: {fileID: 4774729643031893514, guid: 06cc381c7d0d4514b9cc5ecddf93786c, type: 3}
      propertyPath: m_LocalPosition.y
      value: -1.51
      objectReference: {fileID: 0}
    - target: {fileID: 4774729643031893514, guid: 06cc381c7d0d4514b9cc5ecddf93786c, type: 3}
      propertyPath: m_LocalPosition.z
      value: 0
      objectReference: {fileID: 0}
    - target: {fileID: 4774729643031893514, guid: 06cc381c7d0d4514b9cc5ecddf93786c, type: 3}
      propertyPath: m_LocalRotation.w
      value: 1
      objectReference: {fileID: 0}
    - target: {fileID: 4774729643031893514, guid: 06cc381c7d0d4514b9cc5ecddf93786c, type: 3}
      propertyPath: m_LocalRotation.x
      value: -0
      objectReference: {fileID: 0}
    - target: {fileID: 4774729643031893514, guid: 06cc381c7d0d4514b9cc5ecddf93786c, type: 3}
      propertyPath: m_LocalRotation.y
      value: -0
      objectReference: {fileID: 0}
    - target: {fileID: 4774729643031893514, guid: 06cc381c7d0d4514b9cc5ecddf93786c, type: 3}
      propertyPath: m_LocalRotation.z
      value: -0
      objectReference: {fileID: 0}
    - target: {fileID: 4774729643031893514, guid: 06cc381c7d0d4514b9cc5ecddf93786c, type: 3}
      propertyPath: m_LocalEulerAnglesHint.x
      value: 0
      objectReference: {fileID: 0}
    - target: {fileID: 4774729643031893514, guid: 06cc381c7d0d4514b9cc5ecddf93786c, type: 3}
      propertyPath: m_LocalEulerAnglesHint.y
      value: 0
      objectReference: {fileID: 0}
    - target: {fileID: 4774729643031893514, guid: 06cc381c7d0d4514b9cc5ecddf93786c, type: 3}
      propertyPath: m_LocalEulerAnglesHint.z
      value: 0
      objectReference: {fileID: 0}
    - target: {fileID: 5415158127368904456, guid: 06cc381c7d0d4514b9cc5ecddf93786c, type: 3}
      propertyPath: events.onUse.m_PersistentCalls.m_Calls.Array.size
      value: 1
      objectReference: {fileID: 0}
    - target: {fileID: 5415158127368904456, guid: 06cc381c7d0d4514b9cc5ecddf93786c, type: 3}
      propertyPath: events.onUse.m_PersistentCalls.m_Calls.Array.data[0].m_Mode
      value: 1
      objectReference: {fileID: 0}
    - target: {fileID: 5415158127368904456, guid: 06cc381c7d0d4514b9cc5ecddf93786c, type: 3}
      propertyPath: events.onUse.m_PersistentCalls.m_Calls.Array.data[0].m_Target
      value: 
      objectReference: {fileID: 2740430656763377285}
    - target: {fileID: 5415158127368904456, guid: 06cc381c7d0d4514b9cc5ecddf93786c, type: 3}
      propertyPath: events.onUse.m_PersistentCalls.m_Calls.Array.data[0].m_CallState
      value: 2
      objectReference: {fileID: 0}
    - target: {fileID: 5415158127368904456, guid: 06cc381c7d0d4514b9cc5ecddf93786c, type: 3}
      propertyPath: events.onUse.m_PersistentCalls.m_Calls.Array.data[0].m_MethodName
      value: Dispose
      objectReference: {fileID: 0}
    - target: {fileID: 5415158127368904456, guid: 06cc381c7d0d4514b9cc5ecddf93786c, type: 3}
      propertyPath: events.onUse.m_PersistentCalls.m_Calls.Array.data[0].m_TargetAssemblyTypeName
      value: Garbage, Assembly-CSharp
      objectReference: {fileID: 0}
    - target: {fileID: 5415158127368904456, guid: 06cc381c7d0d4514b9cc5ecddf93786c, type: 3}
      propertyPath: events.onUse.m_PersistentCalls.m_Calls.Array.data[0].m_Arguments.m_ObjectArgumentAssemblyTypeName
      value: UnityEngine.Object, UnityEngine
      objectReference: {fileID: 0}
    m_RemovedComponents: []
  m_SourcePrefab: {fileID: 100100000, guid: 06cc381c7d0d4514b9cc5ecddf93786c, type: 3}
--- !u!1 &7321952245774699070 stripped
GameObject:
  m_CorrespondingSourceObject: {fileID: 677227459005051759, guid: 06cc381c7d0d4514b9cc5ecddf93786c, type: 3}
  m_PrefabInstance: {fileID: 7852362465334835537}
  m_PrefabAsset: {fileID: 0}
--- !u!4 &3367018373330579291 stripped
Transform:
  m_CorrespondingSourceObject: {fileID: 4774729643031893514, guid: 06cc381c7d0d4514b9cc5ecddf93786c, type: 3}
  m_PrefabInstance: {fileID: 7852362465334835537}
  m_PrefabAsset: {fileID: 0}
