{
    "directives": [
        "dUI_MANAGER",
        "USE_PHYSICS2D",
        "USE_NEW_INPUT",
        "dUI_TextMeshPro"
    ],
    "platforms": {
        "Standalone": [
            "dUI_MANAGER",
            "USE_PHYSICS2D",
            "USE_NEW_INPUT",
            "dUI_TextMeshPro"
        ],
        "WebGL": [
            "dUI_MANAGER",
            "dUI_TextMeshPro",
            "USE_PHYSICS2D",
            "USE_NEW_INPUT"
        ]
    }
}