{ "frames": {
   "000_Normal": {
    "frame": { "x": 0, "y": 0, "w": 64, "h": 32 },
    "rotated": false,
    "trimmed": false,
    "spriteSourceSize": { "x": 0, "y": 0, "w": 64, "h": 32 },
    "sourceSize": { "w": 64, "h": 32 },
    "duration": 100
   },
   "001_Agua": {
    "frame": { "x": 64, "y": 0, "w": 64, "h": 32 },
    "rotated": false,
    "trimmed": false,
    "spriteSourceSize": { "x": 0, "y": 0, "w": 64, "h": 32 },
    "sourceSize": { "w": 64, "h": 32 },
    "duration": 100
   },
   "002_Agua": {
    "frame": { "x": 0, "y": 32, "w": 64, "h": 32 },
    "rotated": false,
    "trimmed": false,
    "spriteSourceSize": { "x": 0, "y": 0, "w": 64, "h": 32 },
    "sourceSize": { "w": 64, "h": 32 },
    "duration": 100
   },
   "003_Full": {
    "frame": { "x": 64, "y": 32, "w": 64, "h": 32 },
    "rotated": false,
    "trimmed": false,
    "spriteSourceSize": { "x": 0, "y": 0, "w": 64, "h": 32 },
    "sourceSize": { "w": 64, "h": 32 },
    "duration": 100
   }
 },
 "meta": {
  "app": "http://www.aseprite.org/",
  "version": "1.2.25-x64",
  "image": "FijoSpriteBacha-0002.png",
  "format": "RGBA8888",
  "size": { "w": 128, "h": 64 },
  "scale": "1"
 }
}
