%YAML 1.1
%TAG !u! tag:unity3d.com,2011:
--- !u!1045 &1
EditorBuildSettings:
  m_ObjectHideFlags: 0
  serializedVersion: 2
  m_Scenes:
  - enabled: 1
    path: Assets/Scenes/MainMenu.unity
    guid: 3f1937691c44dc64fb97446bcfdb13c0
  - enabled: 1
    path: Assets/Scenes/Splash.unity
    guid: 1a1cb104511b5cc4383338180c89a4fd
  - enabled: 1
    path: Assets/Scenes/Loading.unity
    guid: 98f57f0e5bc74d949b760b1eb44bbcc8
  - enabled: 1
    path: Assets/Scenes/Room.unity
    guid: 3ae73359df46b2d43ac7d267ec7d1cee
  - enabled: 1
    path: Assets/Scenes/Drawing.unity
    guid: d7050dfaacba07547a7c99e61fb39172
  - enabled: 1
    path: Assets/Scenes/WateringPlant.unity
    guid: ce014751e9d536847bff4d8fbad82914
  - enabled: 0
    path: Assets/Scenes/SampleScene.unity
    guid: 2cda990e2423bbf4892e6590ba056729
  - enabled: 0
    path: Assets/Scenes/DragAndDrop.unity
    guid: 7b7b6ba3a2c0d8d4291cdd1e7f6524ab
  - enabled: 1
    path: Assets/Scenes/Dishes.unity
    guid: 3247ba4510499cd4bbd6bc6550aa7087
  m_configObjects: {}
